{
  // Server authentication info
  "servers": [
    {
      "host": "brokespoke.org",           // You droplet name
      "username": "root",
      //"password": "yeahright"
      // or pem file (ssh based authentication)
      "pem": "~/.ssh/id_rsa"
    }
  ],

  // Install MongoDB in the server, does not destroy local MongoDB on future setup
  "setupMongo": true,

  // WARNING: Node.js is required! Only skip if you already have Node.js installed on server.
  "setupNode": true,

  // WARNING: If nodeVersion omitted will setup 0.10.29 by default. Do not use v, only version number.
  "nodeVersion": "0.10.40",

  // Install PhantomJS in the server
  "setupPhantom": true,

  // Application name (No spaces)
  "appName": "stg_frontdesk",


  // Location of app (local directory)
  "app": "/Users/ashooner/repos/frontdesk/frontdesk",

  // Configure environment
  "env": {
    "ROOT_URL": "http://localhost",
    "MONGO_URL":"mongodb://127.0.0.1/stg_frontdesk",
    "PORT": 4000
  },

  // Meteor Up checks if the app comes online just after the deployment
  // before mup checks that, it will wait for no. of seconds configured below
  "deployCheckWaitTime": 120
}
